Assignment 2
…
## # A tibble: 2 x 5
##   term        estimate std.error statistic   p.value
##   <chr>          <dbl>     <dbl>     <dbl>     <dbl>
## 1 (Intercept)   -1.74     0.0149   -117.   0        
## 2 delinq_2yrs    0.103    0.0257      4.01 0.0000617
## AIC 32713
## =====[1] "repay_fail ~ inq_last_6mths"
## # A tibble: 2 x 5
##   term           estimate std.error statistic  p.value
##   <chr>             <dbl>     <dbl>     <dbl>    <dbl>
## 1 (Intercept)      -1.93    0.0180     -107.  0.      
## 2 inq_last_6mths    0.168   0.00823      20.4 1.41e-92
## AIC 32318
## =====[1] "repay_fail ~ addr_state"
## # A tibble: 50 x 5
##    term         estimate std.error statistic    p.value
##    <chr>           <dbl>     <dbl>     <dbl>      <dbl>
##  1 (Intercept)    -1.34      0.281    -4.76  0.00000189
##  2 addr_stateAL   -0.584     0.315    -1.85  0.0637    
##  3 addr_stateAR   -0.560     0.341    -1.65  0.0998    
##  4 addr_stateAZ   -0.391     0.297    -1.32  0.188     
##  5 addr_stateCA   -0.274     0.283    -0.969 0.333     
##  6 addr_stateCO   -0.685     0.302    -2.27  0.0234    
##  7 addr_stateCT   -0.549     0.302    -1.82  0.0689    
##  8 addr_stateDC   -1.15      0.389    -2.96  0.00304   
##  9 addr_stateDE   -0.571     0.388    -1.47  0.141     
## 10 addr_stateFL   -0.132     0.285    -0.462 0.644     
## # ... with 40 more rows
## AIC 32661
## =====[1] "repay_fail ~ open_acc"
…
